{	
	"rubName":"hof",
	"title":"Kool Capture : animation movies made with Kool Capture",  
    "description":"Presentation of films made with Kool Capture.",  
	"content":{
		"title":"Films made with Kool Capture",
		"text":"If you wish to publish your film made with Kool Capture in this page, please contact us at:",
		"email": "info@koolcapture.com"
		},
	"ateliersMovies":{
		"title":"",
		"data":{
			"title":"Title: ",
			"institution":"Institution: ",
			"author":"Authors-Directors: ",
			"synopsis":"Synopsis: ",
			"duration":"Duration: ",
			"date":"Date: ",
			"credit-support":"Credits and support: ",
			"state":"State: ",
			"technic":"Technic: "
			},
		"movies":[
				{
					"movieNum":"264133097",
					"title":"8 histoires à couper le souffle !",
					"institution":"Ecole des marronniers à Comps-la-Grand-Ville (12)",
					"author":"Les élèves de maternelle (moyenne et grande section) et de CE2/CM",
					"synopsis":"",
					"duration":"5'26",
					"date":"2018",
					"credit-support":"",
					"state":"Achevé",
					"technic":[
						"Papier découpé"
					]
				},
				{
					"movieNum":"263877765",
					"title":"TKT! Ça va passer…",
					"institution":"Collège Forain François Verdier de Léguevin",
					"author":"Les élèves de la classe cinéma",
					"synopsis":"",
					"duration":"3'51",
					"date":"2018",
					"credit-support":"",
					"state":"Achevé",
					"technic":[
						"Papier découpé"
					]
				},
				{
					"movieNum":"262003983",
					"title":"Walt horror story",
					"institution":"Lycée Professionnel Le Mirail",
					"author":"Les élèves des Terminales CAP EVSC et D",
					"synopsis":"La vengeance d'une fille, douce comme Bambi...",
					"duration":"3'19",
					"date":"15-03-2018",
					"credit-support":"Lycée Professionnel Le Mirail",
					"state":"Achevé",
					"technic":[
						"Papier découpé"
					]
				},
				{
					"movieNum":"261164117",
					"title":"Le petit chaperon du bois chantant",
					"institution":"Lycée des métiers du bois de Luchon",
					"author":"Les élèves de 1ère bac Pro menuiserie et scierie",
					"synopsis":"Une version plus ou moins gore du petit chaperon rouge, intégrant un loup garou et une grand-mère snipper dans un contexte forestier...",
					"duration":"4'03",
					"date":"05-03-2018",
					"credit-support":"Dispositif « Projet d'avenir » - Région Occitanie",
					"state":"Achevé",
					"technic":[
						"Papier découpé"
					]
				},
				{
					"movieNum":"227646138",
					"title":"Red line",
					"institution":"La Ménagerie",
					"author":"17 youth educators from Greece, Poland, Italy and France as part of the Erasmus+ 'ART OF STOP MOTION IN EDUCATIONAL ACTIVITIES' training organized by La Ménagerie",
					"synopsis":"Immigration in Europe",
					"duration":"6'03",
					"date":"31-07-2017",
					"credit-support":"Erasmus+ formation:ART OF STOP MOTION IN EDUCATIONAL ACTIVITIES",
					"state":"Achevé",
					"technic":[
						"Papier découpé"
					]
				},
				{
					"movieNum":"201134562",
					"title":"C’est quoi un héros dans la mythologie grecque ?",
					"institution":"École Jean Jaurès de Toulouse",
					"author":"Les classes de CM1/CM2 de l'école Jean Jaurès",
					"synopsis":"Des portraits de héros dans la mythologie grecque en papier découpé.",
					"duration":"3'56",
					"date":"31-01-2017",
					"credit-support":"Dispositif Passeport pour l'art – Mairie de Toulouse",
					"state":"Achevé",
					"technic":[
						"Papier découpé"
					]
				},
				{
					"movieNum":"170939964",
					"title":"Le premier des droits de l’Homme",
					"institution":"Collège Raymond Badiou de Toulouse",
					"author":"Les élèves de 6ème et 3ème S.",
					"synopsis":"Écrire \"Liberté\" sur le bord d'une plage, c'est déjà avoir la liberté de l'écrire. Une mise en images des droits fondamentaux de l'Homme.",
					"duration":"5'57",
					"date":"16-06-2016",
					"credit-support":"Avec le soutien du collège, du rectorat de l'académie de Toulouse et de la Préfecture de la Haute-Garonne",
					"state":"Achevé",
					"technic":[
						"Papier découpé",
						"Gravure"
					]
				},
				{
					"movieNum":"169062312",
					"title":"Je me souviens",
					"institution":"École élémentaire Lucie et Raymond Aubrac d'Albi",
					"author":"Les élèves de CE2",
					"synopsis":"Une réalisation en papiers découpés à partir d'anciennes illustrations mêlées aux traits d'enfants, inspirée de l'oeuvre \"Je me souviens\" de Georges Pérec.",
					"duration":"4'29",
					"date":"16-06-2016",
					"credit-support":"Avec le soutien de la Mairie d'Albi et de Media-Tarn",
					"state":"Achevé",
					"technic":[
						"Papier découpé"
					]
				},
				{
					"movieNum":"170952348",
					"title":"Le voyage de la goutte",
					"institution":"École Orée de Vaure de Revel",
					"author":"Les élèves de CE1/CE2",
					"synopsis":"Une goutte d'eau s'en va faire le tour du monde. À travers son périple, elle va rencontrer des habitants aux histoires et modes de vies divers et variés.",
					"duration":"3'58",
					"date":"13-06-2016",
					"credit-support":"",
					"state":"Achevé",
					"technic":[
						"Papier découpé"
					]
				},
				{
					"movieNum":"165549040",
					"title":"L’île du Pattaya",
					"institution":"Collège Stendhal de Toulouse",
					"author":"Les élèves de 6ème SEGPA",
					"synopsis":"Un film d'animation réalisation inspiré par la série \"Zooz\" et réalisé avec son accompagnement. Sur la planète Zooz vivent d'étranges créatures ... Parmi elles  le Pattaya ...",
					"duration":"2'50",
					"date":"26-05-2016",
					"credit-support":"Avec le soutien du collège, du rectorat et de la DRAC Midi-Pyrénées dans le cadre du dispositif \"atelier artistique\".",
					"state":"Achevé",
					"technic":[
						"Dessin traditionnel"
					]
				},
				{
					"movieNum":"159789650",
					"title":"Le bizarre voyage e Jacqueline et Jean-Pierre",
					"institution":"Ecole élémentaire Lakanal de Toulouse",
					"author":"Les élèves de CM2",
					"synopsis":"Jacqueline et Jean-Pierre font appel à une agence de voyage très ... spéciale. Ils embarquent alors pour un monde fantastique de créatures aussi loufoques qu'effrayantes.",
					"duration":"5'07",
					"date":"21-04-2016",
					"credit-support":"Avec le soutien de la Ville de Toulouse dans le cadre du dispositif \"Passeport pour l'art\"",
					"state":"Achevé",
					"technic":[
						"Papier découpé"
					]
				},
				{
					"movieNum":"162650288",
					"title":"La légende du Sarignac",
					"institution":"École élémentaire Paul Bert de Toulouse",
					"author":"Les élèves de CE2",
					"synopsis":"Le Sarignac se sent bien seul dans sa forêt. Il décide un jour de braver tous les dangers pour retrouver les siens ...",
					"duration":"3'08",
					"date":"21-04-2016",
					"credit-support":"Avec le soutien de la Mairie de Toulouse dans le cadre du dispositif Passeport pour l'art",
					"state":"Achevé",
					"technic":[
						"Papier découpé"
					]
				},
				{
					"movieNum":"160338758",
					"title":"De l’infiniment grand à l’infiniment petit",
					"institution":"Écoles Dottin et Marengo de Toulouse",
					"author":"Les élèves de CP de l'école Dottin et les élèves de CM2 de l'école Marengo-Périole de Toulouse",
					"synopsis":"Projet de réalisation collaborative : durant une semaine deux écoles de Toulouse se sont prêtées au jeu d'une réalisation en \"cadavre exquis\" et en simultané pour créer une réalisation commune.",
					"duration":"12'23",
					"date":"05-02-2016",
					"credit-support":"Avec le soutien de la Mairie de Toulouse",
					"state":"Achevé",
					"technic":[
						"Papier découpé"
					]
				},
				{
					"movieNum":"145840705",
					"title":"Rester ou partir",
					"institution":"Collège Forain François Verdier de Léguevin",
					"author":"",
					"synopsis":"\"Mais pourquoi ils restent pas chez eux ?\" Un film d'animation image par image en papiers découpés et extraits de presse. Un petit garçon s'interroge sur les migrants qui viennent en France et sur les raisons qui les ont poussé à quitter leurs pays d'origine. Un film réalisé en 2 jours par les élèves du Collège Forain François Verdier de Léguevin (31).",
					"duration":"5'58",
					"date":"23-11-2015",
					"credit-support":"",
					"state":"Achevé",
					"technic":[
						"Papier découpé"
					]
				},
				{
					"movieNum":"145975388",
					"title":"L’étrange découverte du professeur Glebeskefeu",
					"institution":"Centre d'arts visuels Le Majorat - Villeneuve-Tolosane",
					"author":"Les participants du stage \"Réalisation\" des vacances de la Toussaint au Majorat de Villeneuve-Tolosane",
					"synopsis":"Un professeur fou conçoit une étrange créature mi-guêpe mi-humaine. Celle-ci part à la découverte d'une lointaine planète ou elle fait la connaissance du dodur, du nékozila, du marssou, du retarda-terre et d'autres bestioles fantastiques ...",
					"duration":"4'48",
					"date":"23-11-2015",
					"credit-support":"Avec le soutien de la Ville de Villeneuve-Tolosane",
					"state":"Achevé",
					"technic":[
						"Papier découpé"
					]
				},
				{
					"movieNum":"133735087",
					"title":"Chronique du plancton",
					"institution":"Acceuils de loisirs Bellegarde et Alban Minville",
					"author":"",
					"synopsis":"Un court-métrage d'animation collaboratif autour des espèces sous-marines et de planctons bizarroïdes ... Ce projet \"ping-pong\" s'est déroulé sur 4 jours pour écrire un scénario, réaliser le story-board, construire les décors et les personnages, tourner image par image et enregistrer la bande-son. Les enfants des deux centres ont communiqué par échanges d'images tout au long de la semaine pour avancer dans leurs réalisations respectives.",
					"duration":"3'57",
					"date":"06-07-2015",
					"credit-support":"Avec le soutien de la Mairie de Toulouse dans le cadre du Cartoon festival 2015",
					"state":"Achevé",
					"technic":[
						"Papier découpé",
						"Sable"
					]
				},
				{
					"movieNum":"132193420",
					"title":"Expérimentations suivies de « Chasse interdite »",
					"institution":"Le Majorat Arts visuels - Villeneuve Tolosane (31)",
					"author":"",
					"synopsis":"Ces films ont été réalisés dans le cadre des ateliers hebdomadaires menés par La Ménagerie au centre d'arts visuels Le Majorat de Villeneuve-Tolosane. Le premier semestre, les participants, enfants et adultes, ont eu l'occasion de découvrir et expérimenter différentes techniques image par image. Le deuxième semestre, ils ont réalisé ensemble un court-métrage en papiers découpés.",
					"duration":"6'25",
					"date":"02-07-2015",
					"credit-support":"",
					"state":"En Cours",
					"technic":[
						"Papier découpé",
						"Pâte à modeler",
						"Peinture",
						"Sable",
						"Objets"
					]
				},
				{
					"movieNum":"131075695",
					"title":"Les vacances de Monsieur Ulysse",
					"institution":"École Lucie et Raymond Aubrac d'Albi",
					"author":"Les élèves de CE2",
					"synopsis":"On s'en doutait depuis quelques jours mais maintenant c'est confirmé. Ulysse a disparu de \"L'Odyssée\". Ce grand roman a perdu son héros et c'est une catastrophe pour la littérature mondiale. En route pour le retrouver ...",
					"duration":"4'47",
					"date":"18-06-2015",
					"credit-support":"Avec le soutien de la Mairie d'Albi et de Media-Tarn",
					"state":"Achevé",
					"technic":[
						"Papier découpé"
					]
				},
				{
					"movieNum":"134819423",
					"title":"Voyage en poésie",
					"institution":"Collège Raymond Badiou de Toulouse",
					"author":"Les élèves de 5ème SEGPA",
					"synopsis":"Une adaptation image par image de plusieurs haikus, petits poèmes d'origine japonaise",
					"duration":"4'36",
					"date":"10-06-2015",
					"credit-support":"Avec le soutien du collège, du rectorat de l'Académie de Toulouse et de la Préfecture Haute-Garonne.",
					"state":"Achevé",
					"technic":[
						"Papier découpé"
					]
				}
		]
	}
}
