{	
	"rubName":"tuto",
	"title":"Kool Capture : tutorial",
	"description":"Discover the functionalities of Kool Capture, a freeware for capturing images and creating stop-motion animation movies with a webcam (DSLR cameras are not supported) and a Mac or PC computer.",
	"tutoKC":{
		"title":"Tutorial Kool Capture",
		"intro_0":"Using Kool Capture, you will need an utility to change the settings of the webcam.",
		"intro_1_1":"On MAC : Logitech Camera Settings (free), that you can download ",
		"intro_1_2":"here",
		"introLinkMAC_1":"https://itunes.apple.com/fr/app/logitech-camera-settings/id638332853?mt=12",
		"intro_2_1":"On PC : MyCam (free), that you can download ",
		"intro_2_2":"here",
		"introLinkPC":"https://mycam.fr.softonic.com/",
		"parts":[
			{
				"titlePart":"I) Starting up the software",
				"intro":[
					"First of all, you have to connect your webcam before launching Kool Capture in order that it can be detected.",
					"If you forgot to plug the webcam before launching Kool Capture, plug the webcam and click on the \"refresh\" button",
					"images/tuto/KC/2_1_0_refresh.jpg",
					"so that Kool Capture can detect it.",
					"Launch Kool Capture, give a name to your project, a name for the shot and click on \"Create Shot\". You can also open an existing project by clicking on it.",
					"images/tuto/KC/1_gest_projet_en.png"
				],
				"part":[]
			},
			{
				"titlePart":"II) Setting of the webcam",
				"intro":[
					"On the top left of the screen, click on",
					"images/tuto/KC/2_1_1_choix_webcam.jpg",
					"and choose the webcam."
				],
				"part":[
							[
								[
									"For MAC:Logitech WebCam Setting"
								],
								[
									"Then, open Logitech WebCam Setting and make all the settings ( zoom, white balance, focus…), so that the brightness is correct by setting the gain as low as possible."
								]
							],
							[
								[
									"For PC:MyCam"
								],
								[
									"Then open MyCam, click on \" Device\", choose the webcam and then click \"Options\" and make all settings so that the brightness is correct by setting the gain as low as possible."
								]
							]
				]
			},
			{
				"titlePart":"III) The tools of Kool Capture",
				"intro":[],
				"part":[
							[
								[
									"Tools of the liveView:",
									"images/tuto/KC/3_1_0_barre_liveview.png"				
								],
								[
									"Activate the LiveView by clicking on",
									"images/tuto/KC/3_1_1_liveView.jpg",
									", options and settings will appear"					
								],
								[
									"images/tuto/KC/3_1_2_liveView_blend.jpg",
									"Onion skin:Set the transparency of the liveview"
								],
								[
									"images/tuto/KC/3_1_3_nb_photo.jpg",
									"Number of pictures taken at each capture"
								],
								[
									"images/tuto/KC/3_1_4_capt.jpg",
									"Take a picture, also possible by pressing the \"ENTER\" key"
								],
								[
									"images/tuto/KC/3_1_5_miroirH.jpg",
									"Vertical switching of the picture, sometimes useful when the webcam is in the reverse direction."
								],
								[
									"images/tuto/KC/3_1_6_miroirV.jpg",
									"Horizontal switching of the picture"
								],
								[
									"images/tuto/KC/3_1_7_timelapse.jpg",
									"Timelapse allow to take pictures at a preset time interval. Nota : you must disable the standby mode of your laptop during timelapse."
								],
								[
									"images/tuto/KC/3_1_8_grille.jpg",
									"Display a grid on the screen, useful to have benchmarks for the shot size."
								]
							],
							[
								[
									"Tools of the timeline:",
									"images/tuto/KC/3_2_0_barre_timeline.png"				
								],
								[
									"All the pictures taken appear on a sequence under the setting tools. It is possible to select a picture by clicking on it, it will then display on the screen. To select several pictures you just have to press the \"SHIFT\" key and click on the first and the last picture of your selection. Then, you can apply a lot of options:"
								],
								[
									"images/tuto/KC/3_2_2_copier.jpg",
									"Copy picture(s)"
								],
								[
									"images/tuto/KC/3_2_3_couper.jpg",
									"Cut a picture or the selection"
								],
								[
									"images/tuto/KC/3_2_4_coller_avant.jpg",
									"Paste a picture or the selection before the selected image"
								],
								[
									"images/tuto/KC/3_2_4_coller_apres.jpg",
									"Paste a picture or the selection after the selected image"
								],
								[
									"images/tuto/KC/3_2_5_collerInv.jpg",
									"Paste the selection in reverse direction"
								],
								[
									"images/tuto/KC/3_2_6_inverse.jpg",
									"Reverse the order of the selection"
								],
								[
									"images/tuto/KC/3_2_7_supp.jpg",
									"Delete picture(s)"
								],
								[
									"images/tuto/KC/3_2_8_suppDir.jpg",
									"Folder where the all the pictures are saved (including the deleted ones)"
								],
								[
									"images/tuto/KC/4_1_1_export.jpg",
									"Export the sequence :",
									"- in \"movie\" (not recommanded for the animators). The sequence will be exported in a h264 movie file, only to be used to quickly give the short film to the children without using an editing software. If there was a sound in the shot, you will be given the choice for exporting the video with or without the sound.",
									"- or in \"sequence\" (recommanded for the animators) . All the images will be exported in high quality in the folder chosen in the export panel, but you have then to process to the editing with a dedicated software ( adobe premiere pro, final cut…) to turn the serie of images into a movie. You will choose the export quality export into the editing sofware."
								],
								[
									"images/tuto/KC/3_2_10_import_son.jpg",
									"Import a sound in the sequence",
									"Once you've imported a sound, the name of the sound appears next to the import sound button and you can delete it. This sound will be played when playing the sequence and can be exported in the video if you choose to export the sequence in \"movie\" and check the checkbox \"Export with sound\" in the export panel.",
									"images/tuto/KC/3_2_11_barre_son.jpg"
								]
							],
							[
								[
									"Tools of control:",
									"images/tuto/KC/3_3_0_barre_controls.png"				
								],
								[
									"images/tuto/KC/3_3_2_shortView.jpg",
									"Turn on/turn off the short play when activated, useful with shots with a lot of pictures, as it plays only the 15th (default value) last pictures. You can change this number of images for the short playback in the \"Preferences\" panel. This value is shown in the toolTip while you roll over the button."
								],
								[
									"images/tuto/KC/3_3_3_liveView.jpg",
									"Turn on/turn off the display of the liveview at the end of your sequence and let you see if the last picture is correct for the motion you wanted to create."
								],
								[
									"images/tuto/KC/3_3_4_pad.jpg",
									"Viewing buttons."
								],
								[
									"images/tuto/KC/3_3_5_fps.jpg",
									"Number of images per second (12,5 is the recommanded speed)."
								],
								[
									"images/tuto/KC/3_3_5_pbq.jpg",
									"Playback quality."
								],
								[
									"images/tuto/KC/3_3_6_full.jpg",
									"allow you to display full screen."
								],
								[
									"images/tuto/KC/3_3_1_time.jpg",
									"The duration of your animation and the number of pictures taken."
								]
							],
							[
								[
									"Preferences:",
									"Lastly, all the settings are available in the menu at the top end of the screen, notably the choice of language, the number of images for the short playback and the default recording folder:",
									"- on the menu, click on \"Kool Capture\", \"Preferences\" and choose the language, the number of images for the short playback and the workspace folder",
									"images/tuto/KC/5_1_0_pref_en.jpg"
								]
							]
				]
			}
		]
	}
}
