{	
	"rubName":"tuto",
	"title":"Kool Capture : tutoriel",
	"description":"Découvrez les fonctionnalités de Kool Capture, un logiciel gratuit de capture d’image et de réalisation de films d’animation en stop-motion avec une webcam (les appareils photos DSLR ne sont pas reconnus) et un ordinateur Mac ou PC.",
	"tutoKC":{
		"title":"Tutoriel Kool Capture",
		"intro_0":"L'utilisation de Kool Capture nécessite un utilitaire de paramétrage de la webcam.",
		"intro_1_1":"Sur MAC : Logitech Camera Settings (gratuit), téléchargeable ",
		"intro_1_2":"ici",
		"introLinkMAC_1":"https://itunes.apple.com/fr/app/logitech-camera-settings/id638332853?mt=12",
		"intro_2_1":"Sur PC : MyCam (gratuit), téléchargeable ",
		"intro_2_2":"ici",
		"introLinkPC":"https://mycam.fr.softonic.com/",
		"parts":[
			{
				"titlePart":"I) Mise en route du logiciel",
				"intro":[
					"Avant toute chose, il faut brancher la webcam avant de lancer le logiciel Kool Capture pour qu’il puisse la reconnaître.",
					"Si vous avez oublié de brancher la webcam avant de démarrer Kool Capture, branchez la et cliquez sur le bouton \"actualiser\"",
					"images/tuto/KC/2_1_0_refresh.jpg",
					"pour que Kool Capture la détecte.",
					"Lancer l’application Kool Capture, donner un nom à son projet, le numéro de plan et cliquer sur \"créer un plan\". Il est aussi possible d’ouvrir un projet déjà existant en cliquant dessus.",
					"images/tuto/KC/1_gest_projet_fr.png"
				],
				"part":[]
			},
			{
				"titlePart":"II) Réglages de la webcam",
				"intro":[
					"En haut à gauche de l’écran cliquer sur",
					"images/tuto/KC/2_1_1_choix_webcam.jpg",
					"et choisir la webcam."
				],
				"part":[
							[
								[
									"Pour les MAC : Logitech WebCam Setting"
								],
								[
									"Ensuite ouvrir Logitech WebCam Setting, et faire tous les réglages ( zoom, balance des blancs, focale…), pour que la luminosité soit bonne en mettant le gain le plus faible possible."
								]
							],
							[
								[
									"Pour les PC : MyCam"
								],
								[
									"Ensuite ouvrir MyCam, cliquez sur \" Device\", sélectionnez la webcam puis dans \"Options\", faites vos réglages pour que la luminosité soit bonne en mettant le gain le plus faible possible."
								]
							]
				]
			},
			{
				"titlePart":"III) Les outils de Kool Capture",
				"intro":[],
				"part":[
							[
								[
									"Les outils du liveView :",
									"images/tuto/KC/3_1_0_barre_liveview.png"				
								],
								[
									"Activer le LiveView en cliquant sur",
									"images/tuto/KC/3_1_1_liveView.jpg",
									", des options et réglages vont apparaître"					
								],
								[
									"images/tuto/KC/3_1_2_liveView_blend.jpg",
									"Pelure d'oignon : Régler la transparence du liveview"
								],
								[
									"images/tuto/KC/3_1_3_nb_photo.jpg",
									"Nombre de photos prises à chaque capture"
								],
								[
									"images/tuto/KC/3_1_4_capt.jpg",
									"Capturer une photo, aussi possible en appuyant sur \"ENTER\""
								],
								[
									"images/tuto/KC/3_1_5_miroirH.jpg",
									"Basculement vertical de l’image, utile car parfois la camera est installée dans le mauvais sens."
								],
								[
									"images/tuto/KC/3_1_6_miroirV.jpg",
									"Basculement horizontal de l’image"
								],
								[
									"images/tuto/KC/3_1_7_timelapse.jpg",
									"Le Timelapse sert à prendre des photos à un intervalle temporel prédéfini.  Nota : vous devez empêcher la mise en veille de votre ordinateur portable pendant le timelapse."
								],
								[
									"images/tuto/KC/3_1_8_grille.jpg",
									"Affiche un quadrillage à l’écran, utile pour avoir des repères d'échelle de plan."
								]
							],
							[
								[
									"Les outils de la timeline :",
									"images/tuto/KC/3_2_0_barre_timeline.png"				
								],
								[
									"Toutes les photos prises apparaissent sur une séquence qui se trouve en dessous des réglages. Il est possible de sélectionner une photo en cliquant dessus, elle apparaîtra automatiquement à l’écran. Pour en sélectionner plusieurs il suffit de rester appuyé sur \"SHIFT\" et cliquer sur la première et la dernière photo de votre sélection. Par la suite, vous pouvez effectuer tout un tas d’options :"
								],
								[
									"images/tuto/KC/3_2_2_copier.jpg",
									"Copier la/les photos"
								],
								[
									"images/tuto/KC/3_2_3_couper.jpg",
									"Couper une photo ou la sélection"
								],
								[
									"images/tuto/KC/3_2_4_coller_avant.jpg",
									"Coller une photo ou la sélection avant l'image sélectionnée"
								],
								[
									"images/tuto/KC/3_2_4_coller_apres.jpg",
									"Coller une photo ou la sélection après l'image sélectionnée"
								],
								[
									"images/tuto/KC/3_2_5_collerInv.jpg",
									"Coller la sélection dans le sens inverse"
								],
								[
									"images/tuto/KC/3_2_6_inverse.jpg",
									"Inverser l’ordre de la sélection"
								],
								[
									"images/tuto/KC/3_2_7_supp.jpg",
									"Supprimer la/les photos"
								],
								[
									"images/tuto/KC/3_2_8_suppDir.jpg",
									"Dossier où sont conservées toutes les photos prises (y compris celles supprimées)"
								],
								[
									"images/tuto/KC/4_1_1_export.jpg",
									"Exporter la séquence :",
									"- en \"movie\" (déconseillé pour les animateurs). La séquence sera exportée déjà montée en vidéo h264, à utiliser seulement pour donner le court-métrage aux enfants rapidement sans passer au préalable par un logiciel de montage. Si un son a été importé dans le plan, vous aurez le choix d'exporter la vidéo avec ou sans le son.",
									"- ou en \"séquence\" (conseillé pour les animateurs) . Dans un dossier, choisi pendant l’export, toutes les images vont y être exportées (en bonne qualité), mais un montage est obligatoire par la suite ( adobe premiere pro, final cut…) pour mettre les photos bout à bout. La qualité de l’export sera à choisir sur le logiciel de montage."
								],
								[
									"images/tuto/KC/3_2_10_import_son.jpg",
									"Importer un son dans la séquence",
									"Après avoir importé un son, le nom du son apparaît à côté du bouton d'import son et vous pouvez le supprimer. Ce son sera joué en même temps que la séquence et pourra être exporté dans la vidéo si vous exportez en format \"movie\" et que vous cochez la case \"Exporter avec le son\" dans la fenêtre d'export.",
									"images/tuto/KC/3_2_11_barre_son.jpg"
								]
							],
							[
								[
									"Les outils de contrôle :",
									"images/tuto/KC/3_3_0_barre_controls.png"				
								],
								[
									"images/tuto/KC/3_3_2_shortView.jpg",
									"Active/désactive la lecture courte, idéale lors de plans à nombreuses photos, car il ne lit que les 15 (valeur par défaut) dernières images. Vous pouvez changer cette valeur dans la fenêtre \"Préférences\". Cette valeur est indiquée dans l'infobulle au survol du bouton."
								],
								[
									"images/tuto/KC/3_3_3_liveView.jpg",
									"Active/désactive le liveview à la fin du visionnage de votre séquence et permet ainsi d'observer si la dernière photo est bonne pour l’action voulue."
								],
								[
									"images/tuto/KC/3_3_4_pad.jpg",
									"Boutons de visionnage."
								],
								[
									"images/tuto/KC/3_3_5_fps.jpg",
									"Nombre de photos lues à la seconde (12,5 est la vitesse conseillée)."
								],
								[
									"images/tuto/KC/3_3_5_pbq.jpg",
									"Qualité de lecture."
								],
								[
									"images/tuto/KC/3_3_6_full.jpg",
									"sert à passer en grand écran."
								],
								[
									"images/tuto/KC/3_3_1_time.jpg",
									"La durée de votre animation ainsi que le nombre de photos prises."
								]
							],
							[
								[
									"Les préférences :",
									"Enfin, tous les réglages sont disponibles dans la barre tout en haut de l’écran, notamment le choix de la langue, le nombre d'images pour la lecture courte et l’espace d’enregistrement par défaut :",
									"- cliquer dans le menu sur \"Kool Capture\", \"Préférences\" et choisir la langue, le nombre d'images pour la lecture courte, ainsi que le dossier de stockage des photos",
									"images/tuto/KC/5_1_0_pref_fr.jpg"
								]
							]
				]
			}
		]
	}
}
